Mini Group Project 2
…
Task 3: Get the most recent forecast in each year

It is quite possible that an analyst makes multiple forecasts throughout the year for the same fiscal period. Remove observations from NFLX1 if an analyst has multiple predictions for the same year and keep the last one (the most recent forecast for each year). Name your new dataset as NFLX2. This step is crucial for successful execution of the following tasks. Print the dimension of NFLX2.

Check your work: If your NFLX2 dataset has 641 rows and 14 columns, then you are on the right track. If not, please seek help!

Your code for Task 3

# Enter your code for Task 3 below 

library(dplyr)
NFLX2 <- NFLX1 %>% group_by(ANALYS, YEAR) %>% filter(REVDATS == max(REVDATS)) %>% ungroup()
print(NFLX2)

# A tibble: 641 × 14
   TICKER CNAME     ACTDATS    ESTIMATOR ANALYS FPI   MEASURE   VALUE FPEDATS   
   <fct>  <fct>     <date>     <fct>     <fct>  <fct> <fct>     <dbl> <date>    
 1 NFLX   NETFLIX … 2002-08-05 183       79868  1     EPS     -0.025  2002-12-31
 2 NFLX   NETFLIX … 2002-12-02 220       57596  1     EPS     -0.0179 2002-12-31
 3 NFLX   NETFLIX … 2002-12-05 2178      80485  1     EPS     -0.0286 2002-12-31
 4 NFLX   NETFLIX … 2003-01-06 1872      6749   1     EPS     -0.0136 2002-12-31
 5 NFLX   NETFLIX … 2003-01-15 2227      82629  1     EPS     -0.0164 2002-12-31
 6 NFLX   NETFLIX … 2003-07-24 2227      82629  1     EPS      0.025  2003-12-31
 7 NFLX   NETFLIX … 2003-10-16 481       81599  1     EPS      0.0371 2003-12-31
 8 NFLX   NETFLIX … 2003-10-16 2227      89663  1     EPS      0.0336 2003-12-31
 9 NFLX   NETFLIX … 2003-10-16 1212      54636  1     EPS      0.0357 2003-12-31
10 NFLX   NETFLIX … 2003-10-16 104       22953  1     EPS      0.0379 2003-12-31
# ℹ 631 more rows
# ℹ 5 more variables: REVDATS <date>, ANNDATS <date>, ACTUAL <dbl>,
#   ANNDATS_ACT <date>, YEAR <chr>
…
# Print the summary of size column
size_frequencies <- table(NFLX3$size) 
print(size_frequencies)

  1   2   3 
560  72   9 

summary(size_frequencies)

Number of cases in table: 641 
Number of factors: 1 

print(NFLX3)

# A tibble: 641 × 19
   TICKER CNAME      ACTDATS    ESTIMATOR ANALYS FPI   MEASURE  VALUE FPEDATS   
   <fct>  <fct>      <date>     <fct>     <fct>  <fct> <fct>    <dbl> <date>    
 1 NFLX   NETFLIX I… 2006-10-24 464       1047   1     EPS     0.0929 2006-12-31
 2 NFLX   NETFLIX I… 2007-01-25 464       1047   1     EPS     0.121  2007-12-31
 3 NFLX   NETFLIX I… 2008-10-21 464       1047   1     EPS     0.186  2008-12-31
 4 NFLX   NETFLIX I… 2009-10-23 464       1047   1     EPS     0.271  2009-12-31
 5 NFLX   NETFLIX I… 2010-10-21 464       1047   1     EPS     0.407  2010-12-31
 6 NFLX   NETFLIX I… 2012-01-06 464       1047   1     EPS     0.563  2011-12-31
 7 NFLX   NETFLIX I… 2012-10-24 464       1047   1     EPS     0.0057 2012-12-31
 8 NFLX   NETFLIX I… 2003-12-09 2178      1324   1     EPS     0.0357 2003-12-31
 9 NFLX   NETFLIX I… 2004-03-31 2178      1324   1     EPS     0.0929 2004-12-31
10 NFLX   NETFLIX I… 2005-11-23 2178      1324   1     EPS     0.05   2005-12-31
# ℹ 631 more rows
# ℹ 10 more variables: REVDATS <date>, ANNDATS <date>, ACTUAL <dbl>,
#   ANNDATS_ACT <date>, YEAR <chr>, accuracy <dbl>, past_accuracy <dbl>,
#   horizon <dbl>, experience <int>, size <int>
…
